10
9 72 9 54 27 54 18 36 36 18 5 82 59 42 51 78 16 32 56 28 4 74 103 99 84 90 95 82 106 71 5 54 63 162 95 107 165 135 116 137 6 76 47 59 62 87 43 66 76 56 7 105 105 137 143 171 165 190 209 172 7 98 71 92 97 137 135 190 246 145 4 39 18 81 78 102 133 221 225 225 2 72 99 95 118 136 131 178 272 185 5 61 72 108 85 94 125 181 208 210
1 2 3 4 5 6 7 8 9 10
